- Loaded "simple.table.json", 3 rows.
l1 | l2 | l3
------------
a  | a  | a 
a  | a  | b 
a  | a  | b 
b  | a  | a 
b  | a  | b 
b  | a  | b 
b  | b  | b 
b  | b  | b 
b  | a  | a 
b  | a  | b 
b  | a  | b 
b  | b  | b 
b  | b  | b 
b  | b  | b 
